1 999999 525
2 999998 525
847742 854441 419
890366 306051 525
457755 617701 470
269362 691715 509
993832 261902 525
3 999990 525
93884 81406 333
820834 865490 525
371619 522188 470
741087 101446 509
858514 448751 525
689250 790743 504
587701 392558 470
215283 834722 509
2 999998 525
693208 135108 509
86998 692362 509
995688 148923 525
989766 403850 525
136964 560596 470
892748 376893 525
205421 666852 509
161623 611767 470
601510 128344 470
975628 361860 525
147905 930866 525
363214 276365 441
251798 594451 470
380444 390671 436
582522 218376 470
588364 460731 470
468246 612012 470
741086 540806 509
291927 36328 443
284285 110339 443
845055 78457 525
41815 416712 449
660752 233151 509
49420 80383 351
246503 483202 449
289203 37046 443
256114 914755 525
485824 423974 444
632851 807945 504
789834 364765 509
969389 26212 525
214575 493005 449
528243 498802 470
570076 107601 470
273314 778822 509
663191 99885 509
462801 788948 509
636365 243538 509
291211 6844 443
321344 308176 384
444142 202379 449
92211 588039 470
906933 918761 476
54305 673620 509
891979 985511 507
489988 509389 426
97337 708823 509
633658 787300 504
575079 273109 470
873499 6687 525
77413 497655 449
155746 557992 470
721913 371305 509
51539 530294 470
330596 577261 470
582421 54001 470
717565 512449 509
238395 527012 470
304108 497918 449
396013 547817 470
147404 667044 509
286171 525193 470
698896 572546 509
149028 146333 357
785228 684581 504
306484 922183 525
509262 572504 470
860472 132747 525
836577 452691 509
601268 661183 509
798582 499511 509
344350 746162 509
838015 249214 525
594767 334104 470
545929 970550 525
298580 968158 525
903448 12624 525
664773 868492 525
54580 12901 340
976798 574160 525
878684 663212 525
649400 912490 525
440580 434601 400
569948 250183 470
453637 499889 444
842482 521342 525
829227 412868 509
297980 696717 509
887272 99365 525
140428 893002 525
703995 186051 509
754968 86465 509
930012 962883 507
408644 132955 443
213710 556911 470
817222 333916 509
922768 790338 525
736465 673544 504
973920 439004 525
551355 103487 470
254758 353177 441
198139 546261 470
967638 556445 525
158143 397876 443
276771 214406 443
622061 842727 525
923942 890864 476
17570 997537 525
459087 711309 509
42764 866315 525
767411 609654 509
595080 334914 470
48543 604301 470
118981 27576 354
320874 289371 384
436936 555908 470
848421 177273 525
565692 770742 509
150842 924331 525
219225 994197 525
348103 902360 525
229671 744301 509
653220 672548 442
271508 389800 441
198387 800033 509
33284 102552 351
521216 245546 470
335873 681392 509
851225 585549 525
778493 701247 504
288074 196353 443
742754 787527 468
288100 647933 509
570810 757218 509
117603 907614 525
705600 111984 509
168831 562305 470
769716 3322 509
445328 133470 449
267743 184774 443
90026 68942 351
536866 54815 470
5856 418739 449
213080 501414 449
207741 123826 383
404764 813368 509
747424 880043 525
346318 993566 525
244162 776189 509
559647 937572 525
803647 988876 525
721864 598732 509
844383 493650 525
21274 676825 509
393073 141730 443
418457 134512 449
133662 897003 525
349885 645831 509
425420 51502 449
323286 953242 525
939493 337176 525
106397 531073 470
344476 880436 525
911574 59292 525
314152 377892 441
779905 626842 504
114149 14136 354
454025 731598 509
744796 179995 509
837133 982467 525
785331 764927 468
576967 604479 434
928708 54690 525
998741 90418 525
385757 401110 436
748448 830822 468
511224 395819 449
640741 961908 525
388473 238980 441
216947 544399 470
756648 924843 525
189601 365190 443
370641 940475 525
