1 10 20
100 200 125
201 210 89
900 1000 174
450 2100 182
4500 10000 262
30000 35500 311
1000 100000 351
155 500555 449
1234 123456 354
1 10001 262
45 50065 324
600001 900007 525
5789 902 238
9900 1 262
56000 100045 351
100000 200000 383
200000 300000 443
1001 1 179
256 32 128
4567 67890 340
300000 400000 441
400000 500000 449
500000 600000 470
600000 700000 509
700000 800000 504
800000 900000 525
900000 999999 507
1 999999 525
999999 1 525
789 900 179
999 10001 262
5000 5001 65
4999 6001 236
76543 987 340
12 43567 324
769001 854250 525
999999 2 525
789021 700000 504
900000 950000 507
10000 12001 268
34500 40001 324
41000 42000 257
42000 43000 288
43000 44000 270
44000 45000 270
45000 46000 314
46000 47000 283
47000 48000 314
48000 49000 296
49000 50000 296
1 10 20
10 20 21
20 30 112
30 40 107
40 50 110
50 60 113
60 70 108
70 80 116
80 90 111
90 100 119
500000 400000 449
400000 300000 441
300000 200000 443
200000 100000 383
100000 1 351
1 100000 351
100000 200000 383
200000 300000 443
300000 400000 441
400000 500000 449
75000 85000 351
85000 95000 333
25000 35000 311
35000 45000 324
45000 55000 340
50000 60000 340
10000 20000 279
90000 95000 333
80000 20000 351
50 150 122
150 250 128
250 350 144
350 450 134
450 550 142
550 650 145
650 750 171
750 850 153
850 950 179
1000 900 174
900 800 179
800 700 171
700 600 145
600 500 137
500 400 142
400 300 144
300 200 128
200 100 125
100 1 119
200000 210000 373
210000 220000 386
220000 230000 368
230000 240000 443
240000 250000 368
250000 260000 363
260000 270000 407
270000 280000 407
280000 290000 389
290000 300000 371
200000 190000 360
190000 180000 365
180000 170000 347
170000 160000 370
160000 150000 383
150000 140000 375
140000 130000 344
130000 120000 344
120000 110000 349
110000 100000 354
