1 10 20
100 200 125
201 210 89
900 1000 174
1 999999 525
999999 1 525
3 30 112
500 6 144
44 400000 443
7000 9000 252
42 60 113
888888 777777 525
90 1 116
90 999998 525
676767 555555 509
1100 1250 182
1250 980 182
2000 1800 175
436783 298748 449
5000 3000 238
50000 30000 324
710 670 171
345 890 179
789 231 171
49 59 113
8 1 17
87 567 144
9000 20 262
5700 5346 236
20000 30000 308
909090 808080 525
39482 37593 275
505929 31824 449
400 500 142
200 800 171
345 456 134
688 420 145
1 3 8
2 2 2
1234 5678 238
9876 5432 262
45 50 105
51 63 113
3498 3402 181
43 67 113
12 2000 182
3456 2 217
678 980 179
30 120 119
999999 999998 259
11 20 21
21 30 112
31 60 113
65 87 116
92 4 116
108 3000 217
3050 7680 262
10001 10000 180
3451 6540 262
789 987 179
123 321 131
314159 271828 389
65 766 171
767 676 171
9889 8998 260
44 444 144
55 555 144
555 55 144
444 44 144
3133 3313 199
4414 4144 215
9909 9919 149
9292 9393 198
10101 11011 268
12 14 18
15 19 21
20 1 21
56780 12340 340
10000 20000 279
10005 20005 279
20005 10003 279
2500 6500 262
6600 2400 262
6700 1300 262
7600 9600 260
4680 1357 238
2468 3579 217
9786 6879 260
1234 4321 238
2345 5432 238
4567 7654 262
5678 8765 262
6789 9876 260
12345 54321 340
23456 65432 340
34567 76543 340
45678 87654 351
56789 98765 351
67890 9876 340
1324 2435 183
2435 3546 217
3546 4657 238
4657 5768 236
5768 6879 262
7980 1324 262
1223 2334 183
2334 3445 217
3445 4556 238
4556 5667 236
5667 6778 262
6778 7889 257
1990 1880 175
1880 1770 175
1770 1660 180
1660 1550 167
1550 1440 172
1440 1330 172
1220 1110 182
12334 23445 279
23445 34556 311
34556 45667 324
45667 56778 340
56778 67889 335
67889 78990 351
9687 8576 260
8576 7465 252
7465 6354 257
6354 5243 262
5243 4132 215
109 108 114
109 107 114
109 106 114
1 68 113
68 70 15
70 40 113
40 500 144
500 3456 217
3456 893 217
893 238905 443
238905 456739 449
99999 100000 227
135 531 144
246 642 144
357 753 171
468 864 171
579 975 179
680 86 145
1123 2234 183
2234 3345 217
3345 4456 238
4456 5567 236
5567 6678 262
6678 7789 257
8890 12 262
1233 2344 183
2344 3455 217
3455 4566 238
4566 5677 236
5677 6788 262
6788 7899 257
8900 9011 247
9011 9022 154
8023 8056 190
7046 7034 151
6038 6012 187
5055 5012 179
12333 23444 279
23444 34555 311
34555 45666 324
45666 56777 340
56777 67888 335
67888 78999 351
78999 89000 333
159 973 179
589 920 179
395 904 179
280 590 144
34869 38947 324
3478 7349 262
4237 6494 262
4679 2034 238
8680 3904 262
3498 2049 217
7856 2475 262
24560 24759 264
1589 2758 209
345 64 144
2456 4579 238
456 9258 262
54620 54280 260
47589 23468 324
12385 13469 276
3490 4369 238
1346 9037 262
4579 4976 210
234 451 144
439 4650 238
3467 45692 324
4356 3793 202
8907 2847 262
